<?xml version="1.0" encoding="utf-8" standalone="no"?>
<!DOCTYPE svg PUBLIC "-//W3C//DTD SVG 1.1//EN"
  "http://www.w3.org/Graphics/SVG/1.1/DTD/svg11.dtd">
<svg height="345.6pt" version="1.1" viewBox="0 0 460.8 345.6" width="460.8pt" xmlns="http://www.w3.org/2000/svg" xmlns:xlink="http://www.w3.org/1999/xlink">
 <metadata>
  <rdf:RDF xmlns:cc="http://creativecommons.org/ns#" xmlns:dc="http://purl.org/dc/elements/1.1/" xmlns:rdf="http://www.w3.org/1999/02/22-rdf-syntax-ns#">
   <cc:Work>
    <dc:type rdf:resource="http://purl.org/dc/dcmitype/StillImage"/>
    <dc:date>1980-01-01T00:00:00+00:00</dc:date>
    <dc:format>image/svg+xml</dc:format>
    <dc:creator>
     <cc:Agent>
      <dc:title>Matplotlib v3.4.2, https://matplotlib.org/</dc:title>
     </cc:Agent>
    </dc:creator>
   </cc:Work>
  </rdf:RDF>
 </metadata>
 <defs>
  <style type="text/css">*{stroke-linecap:butt;stroke-linejoin:round;}</style>
 </defs>
 <g id="figure_1">
  <g id="patch_1">
   <path d="M 0 345.6 
L 460.8 345.6 
L 460.8 0 
L 0 0 
z
" style="fill:#ffffff;"/>
  </g>
  <g id="axes_1">
   <g id="patch_2">
    <path d="M 92.16 276.48 
L 414.72 276.48 
L 414.72 41.472 
L 92.16 41.472 
z
" style="fill:#e5e5e5;"/>
   </g>
   <g id="matplotlib.axis_1">
    <g id="xtick_1">
     <g id="line2d_1">
      <path clip-path="url(#p921388f0c5)" d="M 132.375273 276.48 
L 132.375273 41.472 
" style="fill:none;stroke:#ffffff;stroke-linecap:square;stroke-width:0.8;"/>
     </g>
     <g id="line2d_2">
      <defs>
       <path d="M 0 0 
L 0 3.5 
" id="mee133318dd" style="stroke:#555555;stroke-width:0.8;"/>
      </defs>
      <g>
       <use style="fill:#555555;stroke:#555555;stroke-width:0.8;" x="132.375273" xlink:href="#mee133318dd" y="276.48"/>
      </g>
     </g>
     <g id="text_1">
      <!-- 0 -->
      <g style="fill:#555555;" transform="translate(128.875273 293.643125)scale(0.14 -0.14)">
       <defs>
        <path d="M 2976 2342 
C 2976 3744 2560 4410 1683 4410 
C 691 4410 186 3622 186 2074 
C 186 1325 320 678 544 365 
C 768 51 1126 -128 1523 -128 
C 2490 -128 2976 704 2976 2342 
z
M 2438 2022 
C 2438 659 2195 96 1606 96 
C 986 96 723 742 723 2304 
C 723 3654 960 4186 1568 4186 
C 2189 4186 2438 3558 2438 2022 
z
" id="TeXGyrePagella-Regular-30" transform="scale(0.015625)"/>
       </defs>
       <use xlink:href="#TeXGyrePagella-Regular-30"/>
      </g>
     </g>
    </g>
    <g id="xtick_2">
     <g id="line2d_3">
      <path clip-path="url(#p921388f0c5)" d="M 203.589818 276.48 
L 203.589818 41.472 
" style="fill:none;stroke:#ffffff;stroke-linecap:square;stroke-width:0.8;"/>
     </g>
     <g id="line2d_4">
      <g>
       <use style="fill:#555555;stroke:#555555;stroke-width:0.8;" x="203.589818" xlink:href="#mee133318dd" y="276.48"/>
      </g>
     </g>
     <g id="text_2">
      <!-- 5 -->
      <g style="fill:#555555;" transform="translate(200.089818 293.643125)scale(0.14 -0.14)">
       <defs>
        <path d="M 2938 1619 
C 2938 2342 2419 2854 1690 2854 
C 1382 2854 1152 2771 755 2534 
L 813 3872 
L 2765 3840 
L 2797 3872 
C 2784 3987 2784 4026 2784 4122 
C 2784 4224 2784 4262 2797 4378 
L 2765 4410 
C 2765 4410 2086 4378 1651 4378 
C 1216 4378 538 4410 538 4410 
L 506 4378 
L 518 3501 
C 518 2938 499 2342 480 2061 
L 608 2022 
C 909 2323 1082 2413 1395 2413 
C 2010 2413 2394 1978 2394 1286 
C 2394 576 1984 160 1286 160 
C 941 160 621 275 531 442 
L 237 966 
L 83 877 
C 230 512 307 307 397 26 
C 576 -70 832 -128 1107 -128 
C 1536 -128 1990 58 2342 365 
C 2733 710 2938 1146 2938 1619 
z
" id="TeXGyrePagella-Regular-35" transform="scale(0.015625)"/>
       </defs>
       <use xlink:href="#TeXGyrePagella-Regular-35"/>
      </g>
     </g>
    </g>
    <g id="xtick_3">
     <g id="line2d_5">
      <path clip-path="url(#p921388f0c5)" d="M 274.804364 276.48 
L 274.804364 41.472 
" style="fill:none;stroke:#ffffff;stroke-linecap:square;stroke-width:0.8;"/>
     </g>
     <g id="line2d_6">
      <g>
       <use style="fill:#555555;stroke:#555555;stroke-width:0.8;" x="274.804364" xlink:href="#mee133318dd" y="276.48"/>
      </g>
     </g>
     <g id="text_3">
      <!-- 10 -->
      <g style="fill:#555555;" transform="translate(267.804364 293.643125)scale(0.14 -0.14)">
       <defs>
        <path d="M 2675 -19 
L 2675 173 
L 2342 192 
C 1990 211 1926 282 1926 614 
L 1926 4410 
L 1837 4442 
C 1421 4224 966 4032 384 3827 
L 429 3552 
L 493 3552 
L 1318 3923 
L 1338 3930 
C 1376 3930 1389 3872 1389 3718 
L 1389 614 
C 1389 282 1318 211 973 192 
L 614 173 
L 614 -19 
C 966 -6 1318 0 1670 0 
C 2003 0 2342 -6 2675 -19 
z
" id="TeXGyrePagella-Regular-31" transform="scale(0.015625)"/>
       </defs>
       <use xlink:href="#TeXGyrePagella-Regular-31"/>
       <use x="49.999985" xlink:href="#TeXGyrePagella-Regular-30"/>
      </g>
     </g>
    </g>
    <g id="xtick_4">
     <g id="line2d_7">
      <path clip-path="url(#p921388f0c5)" d="M 346.018909 276.48 
L 346.018909 41.472 
" style="fill:none;stroke:#ffffff;stroke-linecap:square;stroke-width:0.8;"/>
     </g>
     <g id="line2d_8">
      <g>
       <use style="fill:#555555;stroke:#555555;stroke-width:0.8;" x="346.018909" xlink:href="#mee133318dd" y="276.48"/>
      </g>
     </g>
     <g id="text_4">
      <!-- 15 -->
      <g style="fill:#555555;" transform="translate(339.018909 293.643125)scale(0.14 -0.14)">
       <use xlink:href="#TeXGyrePagella-Regular-31"/>
       <use x="49.999985" xlink:href="#TeXGyrePagella-Regular-35"/>
      </g>
     </g>
    </g>
    <g id="text_5">
     <!-- Number of processes -->
     <g style="fill:#555555;" transform="translate(174.991875 313.806125)scale(0.168 -0.168)">
      <defs>
       <path d="M 5203 4237 
L 5203 4429 
C 4947 4416 4691 4410 4435 4410 
C 4186 4410 3942 4416 3693 4429 
L 3693 4237 
L 3974 4218 
C 4269 4198 4301 4141 4301 3642 
L 4301 627 
L 1222 4429 
C 1222 4429 1011 4410 877 4410 
C 576 4410 109 4429 109 4429 
L 109 4237 
L 390 4218 
C 685 4198 717 4141 717 3642 
L 717 768 
C 717 269 685 211 390 192 
L 109 173 
L 109 -19 
C 358 -6 602 0 851 0 
C 1107 0 1363 -6 1619 -19 
L 1619 173 
L 1338 192 
C 1043 211 1011 269 1011 768 
L 1011 3731 
L 4038 -26 
L 4614 -128 
C 4614 -64 4595 45 4595 109 
L 4595 3642 
C 4595 4141 4627 4198 4922 4218 
L 5203 4237 
z
" id="TeXGyrePagella-Regular-4e" transform="scale(0.015625)"/>
       <path d="M 3718 -19 
L 3718 173 
L 3456 192 
C 3238 205 3219 243 3219 653 
L 3219 2976 
L 3162 3002 
C 2835 2867 2502 2778 2163 2739 
L 2163 2560 
L 2400 2560 
C 2656 2560 2682 2515 2682 2093 
L 2682 1050 
C 2682 909 2592 730 2445 582 
C 2266 403 2061 314 1811 314 
C 1587 314 1408 384 1306 506 
C 1216 608 1171 806 1171 1088 
L 1171 2976 
L 1114 3002 
C 787 2867 454 2778 115 2739 
L 115 2560 
L 352 2560 
C 608 2560 634 2515 634 2093 
L 634 1018 
C 634 570 672 371 787 211 
C 928 19 1171 -77 1536 -77 
C 1824 -77 2080 13 2253 173 
L 2682 570 
C 2682 384 2675 282 2656 -19 
C 2835 -6 3008 0 3187 0 
C 3366 0 3539 -6 3718 -19 
z
" id="TeXGyrePagella-Regular-75" transform="scale(0.015625)"/>
       <path d="M 5562 -19 
L 5562 173 
L 5261 192 
C 5043 205 5024 250 5024 653 
L 5024 1971 
C 5024 2605 4653 3002 4064 3002 
C 3840 3002 3654 2944 3539 2842 
L 3053 2406 
C 2848 2829 2586 3002 2144 3002 
C 1907 3002 1728 2944 1613 2842 
L 1171 2432 
L 1171 2976 
L 1114 3002 
C 787 2867 454 2778 115 2739 
L 115 2560 
L 352 2560 
C 608 2560 634 2515 634 2093 
L 634 653 
C 634 250 614 205 397 192 
L 102 173 
L 102 -19 
C 371 -6 646 0 915 0 
C 1171 0 1421 -6 1677 -19 
L 1677 173 
L 1408 192 
C 1190 205 1171 250 1171 653 
L 1171 2010 
C 1171 2298 1594 2611 1978 2611 
C 2323 2611 2560 2285 2560 1798 
L 2560 653 
C 2560 250 2541 205 2323 192 
L 2029 173 
L 2029 -19 
C 2298 -6 2560 0 2829 0 
C 3098 0 3360 -6 3629 -19 
L 3629 173 
L 3334 192 
C 3117 205 3098 250 3098 653 
L 3098 2010 
C 3098 2298 3520 2611 3904 2611 
C 4250 2611 4486 2285 4486 1798 
L 4486 -19 
C 4653 -6 4826 0 4992 0 
C 5184 0 5370 -6 5562 -19 
z
" id="TeXGyrePagella-Regular-6d" transform="scale(0.015625)"/>
       <path d="M 3251 1728 
C 3251 2470 2771 3002 2093 3002 
C 1792 3002 1478 2886 1312 2720 
L 960 2362 
L 960 4595 
L 902 4646 
C 621 4538 410 4486 -96 4410 
L -96 4230 
L 262 4230 
C 378 4230 422 4160 422 3968 
L 422 979 
C 422 582 416 410 371 -38 
L 474 -77 
L 730 154 
C 986 -13 1216 -77 1555 -77 
C 1805 -77 1971 -32 2106 64 
L 2746 525 
C 3027 730 3251 1261 3251 1728 
z
M 2694 1466 
C 2694 749 2310 250 1766 250 
C 1434 250 960 454 960 595 
L 960 1971 
C 960 2061 1024 2176 1126 2291 
C 1306 2477 1555 2586 1818 2586 
C 2355 2586 2694 2150 2694 1466 
z
" id="TeXGyrePagella-Regular-62" transform="scale(0.015625)"/>
       <path d="M 2867 1786 
C 2867 2522 2394 3002 1677 3002 
C 1440 3002 1165 2918 902 2765 
C 378 2464 166 2067 166 1402 
C 166 998 256 653 435 410 
C 685 70 1120 -128 1600 -128 
C 1837 -128 2074 -77 2336 38 
C 2509 109 2643 192 2669 230 
L 2797 448 
L 2714 512 
C 2304 269 2157 211 1882 211 
C 1466 211 1120 397 941 710 
C 819 922 774 1101 762 1472 
L 1696 1472 
C 2138 1472 2413 1491 2854 1562 
C 2861 1651 2867 1709 2867 1786 
z
M 2298 1709 
L 1581 1690 
C 1286 1690 1120 1696 774 1728 
C 774 2029 800 2170 883 2336 
C 1018 2618 1293 2790 1600 2790 
C 1811 2790 1978 2707 2093 2534 
C 2234 2323 2298 2138 2298 1709 
z
" id="TeXGyrePagella-Regular-65" transform="scale(0.015625)"/>
       <path d="M 2394 2931 
C 2323 2976 2208 3002 2093 3002 
C 1901 3002 1696 2899 1562 2739 
L 1203 2317 
L 1203 2976 
L 1146 3002 
C 819 2867 486 2778 147 2739 
L 147 2560 
L 384 2560 
C 640 2560 666 2515 666 2093 
L 666 653 
C 666 250 646 205 429 192 
L 134 173 
L 134 -19 
C 397 -6 659 0 922 0 
C 1229 0 1530 -6 1837 -19 
L 1837 173 
L 1504 192 
C 1216 211 1203 230 1203 653 
L 1203 1754 
C 1203 2138 1459 2458 1773 2458 
C 1965 2458 2099 2368 2202 2163 
L 2336 2163 
L 2394 2931 
z
" id="TeXGyrePagella-Regular-72" transform="scale(0.015625)"/>
       <path id="TeXGyrePagella-Regular-20" transform="scale(0.015625)"/>
       <path d="M 3290 1517 
C 3290 2381 2662 3002 1786 3002 
C 851 3002 205 2342 205 1389 
C 205 486 774 -128 1600 -128 
C 2586 -128 3290 557 3290 1517 
z
M 2694 1280 
C 2694 544 2368 83 1850 83 
C 1222 83 800 698 800 1606 
C 800 2374 1107 2790 1670 2790 
C 2259 2790 2694 2150 2694 1280 
z
" id="TeXGyrePagella-Regular-6f" transform="scale(0.015625)"/>
       <path d="M 2182 4096 
L 2182 4589 
C 2048 4640 1971 4659 1888 4659 
C 1683 4659 1459 4550 1318 4390 
L 947 3968 
C 762 3757 678 3469 678 3046 
L 678 2778 
L 237 2579 
L 237 2438 
L 678 2464 
L 678 653 
C 678 250 659 205 442 192 
L 147 173 
L 147 -19 
C 416 -6 678 0 947 0 
C 1216 0 1478 -6 1747 -19 
L 1747 173 
L 1453 192 
C 1235 205 1216 250 1216 653 
L 1216 2464 
L 2010 2464 
L 2054 2803 
C 1773 2784 1498 2778 1216 2778 
L 1216 3322 
C 1216 4058 1299 4237 1664 4237 
C 1837 4237 1952 4192 2106 4058 
L 2182 4096 
z
" id="TeXGyrePagella-Regular-66" transform="scale(0.015625)"/>
       <path d="M 3546 1734 
C 3546 2445 2957 3002 2214 3002 
C 1978 3002 1747 2938 1645 2842 
L 1120 2362 
L 1120 2976 
L 1062 3002 
C 736 2867 403 2778 64 2739 
L 64 2560 
L 301 2560 
C 557 2560 582 2515 582 2093 
L 582 -1126 
C 582 -1530 563 -1574 346 -1587 
L 51 -1606 
L 51 -1798 
C 320 -1786 582 -1779 851 -1779 
C 1120 -1779 1382 -1786 1651 -1798 
L 1651 -1606 
L 1357 -1587 
C 1139 -1574 1120 -1530 1120 -1126 
L 1120 83 
C 1312 -32 1517 -77 1805 -77 
C 1990 -77 2157 -38 2259 26 
L 2989 499 
C 3245 666 3546 1325 3546 1734 
z
M 2989 1498 
C 2989 781 2560 250 1984 250 
C 1632 250 1370 365 1120 627 
L 1120 1958 
C 1120 2048 1152 2118 1235 2227 
C 1421 2464 1683 2586 2003 2586 
C 2605 2586 2989 2163 2989 1498 
z
" id="TeXGyrePagella-Regular-70" transform="scale(0.015625)"/>
       <path d="M 2643 294 
L 2579 390 
C 2342 262 2138 205 1907 205 
C 1197 205 730 755 730 1600 
C 730 2285 1050 2669 1626 2669 
C 1907 2669 2214 2541 2330 2381 
L 2374 1990 
L 2554 1990 
C 2554 2285 2586 2547 2643 2778 
C 2387 2931 2163 3002 1901 3002 
C 1594 3002 1235 2880 851 2637 
C 403 2355 166 1907 166 1344 
C 166 480 774 -128 1632 -128 
C 1965 -128 2445 -6 2509 90 
L 2643 294 
z
" id="TeXGyrePagella-Regular-63" transform="scale(0.015625)"/>
       <path d="M 2502 947 
C 2502 1146 2451 1293 2323 1421 
C 2157 1587 1946 1658 1382 1766 
C 858 1869 685 1997 685 2291 
C 685 2611 909 2790 1299 2790 
C 1728 2790 2054 2566 2054 2266 
L 2054 2118 
L 2234 2118 
C 2240 2490 2246 2643 2266 2842 
C 1926 2957 1696 3002 1434 3002 
C 691 3002 237 2650 237 2074 
C 237 1766 378 1549 672 1414 
C 845 1338 1184 1235 1619 1139 
C 1907 1075 2029 941 2029 698 
C 2029 352 1709 109 1254 109 
C 787 109 454 333 454 653 
L 454 915 
L 262 915 
C 262 474 243 282 192 26 
C 525 -83 774 -128 1069 -128 
C 1907 -128 2502 320 2502 947 
z
" id="TeXGyrePagella-Regular-73" transform="scale(0.015625)"/>
      </defs>
      <use xlink:href="#TeXGyrePagella-Regular-4e"/>
      <use x="83.099991" xlink:href="#TeXGyrePagella-Regular-75"/>
      <use x="143.399979" xlink:href="#TeXGyrePagella-Regular-6d"/>
      <use x="231.699966" xlink:href="#TeXGyrePagella-Regular-62"/>
      <use x="286.999954" xlink:href="#TeXGyrePagella-Regular-65"/>
      <use x="334.899948" xlink:href="#TeXGyrePagella-Regular-72"/>
      <use x="374.399933" xlink:href="#TeXGyrePagella-Regular-20"/>
      <use x="399.399918" xlink:href="#TeXGyrePagella-Regular-6f"/>
      <use x="453.999908" xlink:href="#TeXGyrePagella-Regular-66"/>
      <use x="487.299896" xlink:href="#TeXGyrePagella-Regular-20"/>
      <use x="512.299881" xlink:href="#TeXGyrePagella-Regular-70"/>
      <use x="572.399872" xlink:href="#TeXGyrePagella-Regular-72"/>
      <use x="611.899857" xlink:href="#TeXGyrePagella-Regular-6f"/>
      <use x="666.499847" xlink:href="#TeXGyrePagella-Regular-63"/>
      <use x="710.899841" xlink:href="#TeXGyrePagella-Regular-65"/>
      <use x="758.799835" xlink:href="#TeXGyrePagella-Regular-73"/>
      <use x="801.199829" xlink:href="#TeXGyrePagella-Regular-73"/>
      <use x="843.599823" xlink:href="#TeXGyrePagella-Regular-65"/>
      <use x="891.499817" xlink:href="#TeXGyrePagella-Regular-73"/>
     </g>
    </g>
   </g>
   <g id="matplotlib.axis_2">
    <g id="ytick_1">
     <g id="line2d_9">
      <path clip-path="url(#p921388f0c5)" d="M 92.16 244.433455 
L 414.72 244.433455 
" style="fill:none;stroke:#ffffff;stroke-linecap:square;stroke-width:0.8;"/>
     </g>
     <g id="line2d_10">
      <defs>
       <path d="M 0 0 
L -3.5 0 
" id="m5c0c920640" style="stroke:#555555;stroke-width:0.8;"/>
      </defs>
      <g>
       <use style="fill:#555555;stroke:#555555;stroke-width:0.8;" x="92.16" xlink:href="#m5c0c920640" y="244.433455"/>
      </g>
     </g>
     <g id="text_6">
      <!-- 2.5 -->
      <g style="fill:#555555;" transform="translate(67.66 249.515017)scale(0.14 -0.14)">
       <defs>
        <path d="M 2995 -19 
C 2982 115 2982 179 2982 269 
C 2982 352 2982 416 2995 557 
L 781 493 
L 1946 1728 
C 2566 2387 2758 2739 2758 3219 
C 2758 3955 2259 4410 1446 4410 
C 986 4410 672 4282 358 3962 
L 250 3091 
L 435 3091 
L 518 3386 
C 621 3757 851 3917 1280 3917 
C 1830 3917 2182 3571 2182 3027 
C 2182 2547 1914 2074 1190 1306 
L 102 147 
L 102 -19 
C 576 -6 1056 0 1530 0 
C 2016 0 2509 -6 2995 -19 
z
" id="TeXGyrePagella-Regular-32" transform="scale(0.015625)"/>
        <path d="M 1171 339 
C 1171 531 992 710 794 710 
C 602 710 429 531 429 339 
C 429 147 602 -32 787 -32 
C 992 -32 1171 141 1171 339 
z
" id="TeXGyrePagella-Regular-2e" transform="scale(0.015625)"/>
       </defs>
       <use xlink:href="#TeXGyrePagella-Regular-32"/>
       <use x="49.999985" xlink:href="#TeXGyrePagella-Regular-2e"/>
       <use x="74.999969" xlink:href="#TeXGyrePagella-Regular-35"/>
      </g>
     </g>
    </g>
    <g id="ytick_2">
     <g id="line2d_11">
      <path clip-path="url(#p921388f0c5)" d="M 92.16 208.826182 
L 414.72 208.826182 
" style="fill:none;stroke:#ffffff;stroke-linecap:square;stroke-width:0.8;"/>
     </g>
     <g id="line2d_12">
      <g>
       <use style="fill:#555555;stroke:#555555;stroke-width:0.8;" x="92.16" xlink:href="#m5c0c920640" y="208.826182"/>
      </g>
     </g>
     <g id="text_7">
      <!-- 5.0 -->
      <g style="fill:#555555;" transform="translate(67.66 213.907744)scale(0.14 -0.14)">
       <use xlink:href="#TeXGyrePagella-Regular-35"/>
       <use x="49.999985" xlink:href="#TeXGyrePagella-Regular-2e"/>
       <use x="74.999969" xlink:href="#TeXGyrePagella-Regular-30"/>
      </g>
     </g>
    </g>
    <g id="ytick_3">
     <g id="line2d_13">
      <path clip-path="url(#p921388f0c5)" d="M 92.16 173.218909 
L 414.72 173.218909 
" style="fill:none;stroke:#ffffff;stroke-linecap:square;stroke-width:0.8;"/>
     </g>
     <g id="line2d_14">
      <g>
       <use style="fill:#555555;stroke:#555555;stroke-width:0.8;" x="92.16" xlink:href="#m5c0c920640" y="173.218909"/>
      </g>
     </g>
     <g id="text_8">
      <!-- 7.5 -->
      <g style="fill:#555555;" transform="translate(67.66 178.300472)scale(0.14 -0.14)">
       <defs>
        <path d="M 3181 4218 
L 3181 4410 
C 2490 4384 2432 4378 1747 4378 
C 1075 4378 966 4384 346 4410 
L 282 4378 
C 282 4378 301 3968 301 3706 
C 301 3450 282 3053 282 3053 
L 474 3053 
L 518 3411 
C 570 3808 614 3859 909 3859 
L 2618 3859 
C 2362 3334 2163 2963 1920 2573 
L 358 64 
L 416 -19 
C 416 -19 595 0 710 0 
C 826 0 1005 -19 1005 -19 
C 1274 678 1440 1094 2010 2112 
L 3181 4218 
z
" id="TeXGyrePagella-Regular-37" transform="scale(0.015625)"/>
       </defs>
       <use xlink:href="#TeXGyrePagella-Regular-37"/>
       <use x="49.999985" xlink:href="#TeXGyrePagella-Regular-2e"/>
       <use x="74.999969" xlink:href="#TeXGyrePagella-Regular-35"/>
      </g>
     </g>
    </g>
    <g id="ytick_4">
     <g id="line2d_15">
      <path clip-path="url(#p921388f0c5)" d="M 92.16 137.611636 
L 414.72 137.611636 
" style="fill:none;stroke:#ffffff;stroke-linecap:square;stroke-width:0.8;"/>
     </g>
     <g id="line2d_16">
      <g>
       <use style="fill:#555555;stroke:#555555;stroke-width:0.8;" x="92.16" xlink:href="#m5c0c920640" y="137.611636"/>
      </g>
     </g>
     <g id="text_9">
      <!-- 10.0 -->
      <g style="fill:#555555;" transform="translate(60.66 142.693199)scale(0.14 -0.14)">
       <use xlink:href="#TeXGyrePagella-Regular-31"/>
       <use x="49.999985" xlink:href="#TeXGyrePagella-Regular-30"/>
       <use x="99.999969" xlink:href="#TeXGyrePagella-Regular-2e"/>
       <use x="124.999954" xlink:href="#TeXGyrePagella-Regular-30"/>
      </g>
     </g>
    </g>
    <g id="ytick_5">
     <g id="line2d_17">
      <path clip-path="url(#p921388f0c5)" d="M 92.16 102.004364 
L 414.72 102.004364 
" style="fill:none;stroke:#ffffff;stroke-linecap:square;stroke-width:0.8;"/>
     </g>
     <g id="line2d_18">
      <g>
       <use style="fill:#555555;stroke:#555555;stroke-width:0.8;" x="92.16" xlink:href="#m5c0c920640" y="102.004364"/>
      </g>
     </g>
     <g id="text_10">
      <!-- 12.5 -->
      <g style="fill:#555555;" transform="translate(60.66 107.085926)scale(0.14 -0.14)">
       <use xlink:href="#TeXGyrePagella-Regular-31"/>
       <use x="49.999985" xlink:href="#TeXGyrePagella-Regular-32"/>
       <use x="99.999969" xlink:href="#TeXGyrePagella-Regular-2e"/>
       <use x="124.999954" xlink:href="#TeXGyrePagella-Regular-35"/>
      </g>
     </g>
    </g>
    <g id="ytick_6">
     <g id="line2d_19">
      <path clip-path="url(#p921388f0c5)" d="M 92.16 66.397091 
L 414.72 66.397091 
" style="fill:none;stroke:#ffffff;stroke-linecap:square;stroke-width:0.8;"/>
     </g>
     <g id="line2d_20">
      <g>
       <use style="fill:#555555;stroke:#555555;stroke-width:0.8;" x="92.16" xlink:href="#m5c0c920640" y="66.397091"/>
      </g>
     </g>
     <g id="text_11">
      <!-- 15.0 -->
      <g style="fill:#555555;" transform="translate(60.66 71.478653)scale(0.14 -0.14)">
       <use xlink:href="#TeXGyrePagella-Regular-31"/>
       <use x="49.999985" xlink:href="#TeXGyrePagella-Regular-35"/>
       <use x="99.999969" xlink:href="#TeXGyrePagella-Regular-2e"/>
       <use x="124.999954" xlink:href="#TeXGyrePagella-Regular-30"/>
      </g>
     </g>
    </g>
    <g id="text_12">
     <!-- Speedup -->
     <g style="fill:#555555;" transform="translate(51.94025 191.726812)rotate(-90)scale(0.168 -0.168)">
      <defs>
       <path d="M 3219 1472 
C 3219 1773 3136 1984 2957 2150 
C 2733 2362 2464 2445 1747 2541 
C 966 2643 691 2854 691 3347 
C 691 3885 1094 4269 1658 4269 
C 1907 4269 2144 4218 2317 4122 
C 2528 4013 2598 3917 2618 3731 
L 2656 3366 
L 2861 3366 
C 2861 3706 2886 3923 2950 4269 
C 2438 4474 2150 4538 1798 4538 
C 845 4538 154 3936 154 3098 
C 154 2784 237 2554 422 2381 
C 640 2182 934 2080 1555 1997 
C 2048 1926 2272 1850 2438 1709 
C 2605 1568 2682 1389 2682 1146 
C 2682 570 2202 154 1536 154 
C 1024 154 525 403 493 666 
L 442 1094 
L 237 1094 
C 243 979 243 877 243 838 
C 243 544 230 403 192 115 
C 557 -45 928 -128 1299 -128 
C 2413 -128 3219 544 3219 1472 
z
" id="TeXGyrePagella-Regular-53" transform="scale(0.015625)"/>
       <path d="M 3706 -19 
L 3706 173 
L 3411 192 
C 3194 205 3174 250 3174 653 
L 3174 4595 
L 3117 4646 
C 2835 4538 2624 4486 2118 4410 
L 2118 4230 
L 2477 4230 
C 2592 4230 2637 4160 2637 3968 
L 2637 2797 
C 2278 2950 2099 3002 1875 3002 
C 1702 3002 1549 2963 1389 2880 
L 826 2586 
C 461 2394 224 1926 224 1382 
C 224 870 397 448 710 192 
C 928 6 1229 -77 1645 -77 
C 1773 -77 1920 -51 1952 -26 
L 2662 570 
L 2630 -19 
C 2797 -6 2957 0 3123 0 
C 3315 0 3514 -6 3706 -19 
z
M 2637 1414 
C 2637 998 2624 934 2541 787 
C 2362 486 2048 288 1747 288 
C 1184 288 781 832 781 1594 
C 781 2291 1126 2701 1702 2701 
C 1946 2701 2202 2618 2426 2464 
C 2560 2374 2637 2291 2637 2240 
L 2637 1414 
z
" id="TeXGyrePagella-Regular-64" transform="scale(0.015625)"/>
      </defs>
      <use xlink:href="#TeXGyrePagella-Regular-53"/>
      <use x="52.499985" xlink:href="#TeXGyrePagella-Regular-70"/>
      <use x="112.599976" xlink:href="#TeXGyrePagella-Regular-65"/>
      <use x="160.499969" xlink:href="#TeXGyrePagella-Regular-65"/>
      <use x="208.399963" xlink:href="#TeXGyrePagella-Regular-64"/>
      <use x="269.499954" xlink:href="#TeXGyrePagella-Regular-75"/>
      <use x="329.799942" xlink:href="#TeXGyrePagella-Regular-70"/>
     </g>
    </g>
   </g>
   <g id="line2d_21">
    <path clip-path="url(#p921388f0c5)" d="M 146.618182 265.797818 
L 189.346909 237.031621 
L 246.318545 234.24413 
L 360.261818 222.068132 
" style="fill:none;stroke:#e24a33;stroke-linecap:square;stroke-width:1.5;"/>
    <defs>
     <path d="M 0 3 
C 0.795609 3 1.55874 2.683901 2.12132 2.12132 
C 2.683901 1.55874 3 0.795609 3 0 
C 3 -0.795609 2.683901 -1.55874 2.12132 -2.12132 
C 1.55874 -2.683901 0.795609 -3 0 -3 
C -0.795609 -3 -1.55874 -2.683901 -2.12132 -2.12132 
C -2.683901 -1.55874 -3 -0.795609 -3 0 
C -3 0.795609 -2.683901 1.55874 -2.12132 2.12132 
C -1.55874 2.683901 -0.795609 3 0 3 
z
" id="m6e5cdeff09" style="stroke:#e24a33;"/>
    </defs>
    <g clip-path="url(#p921388f0c5)">
     <use style="fill:#e24a33;stroke:#e24a33;" x="146.618182" xlink:href="#m6e5cdeff09" y="265.797818"/>
     <use style="fill:#e24a33;stroke:#e24a33;" x="189.346909" xlink:href="#m6e5cdeff09" y="237.031621"/>
     <use style="fill:#e24a33;stroke:#e24a33;" x="246.318545" xlink:href="#m6e5cdeff09" y="234.24413"/>
     <use style="fill:#e24a33;stroke:#e24a33;" x="360.261818" xlink:href="#m6e5cdeff09" y="222.068132"/>
    </g>
   </g>
   <g id="line2d_22">
    <path clip-path="url(#p921388f0c5)" d="M 146.618182 265.797818 
L 189.346909 223.069091 
L 246.318545 166.097455 
L 360.261818 52.154182 
" style="fill:none;stroke:#348abd;stroke-dasharray:5.55,2.4;stroke-dashoffset:0;stroke-width:1.5;"/>
   </g>
   <g id="patch_3">
    <path d="M 92.16 276.48 
L 92.16 41.472 
" style="fill:none;stroke:#ffffff;stroke-linecap:square;stroke-linejoin:miter;"/>
   </g>
   <g id="patch_4">
    <path d="M 414.72 276.48 
L 414.72 41.472 
" style="fill:none;stroke:#ffffff;stroke-linecap:square;stroke-linejoin:miter;"/>
   </g>
   <g id="patch_5">
    <path d="M 92.16 276.48 
L 414.72 276.48 
" style="fill:none;stroke:#ffffff;stroke-linecap:square;stroke-linejoin:miter;"/>
   </g>
   <g id="patch_6">
    <path d="M 92.16 41.472 
L 414.72 41.472 
" style="fill:none;stroke:#ffffff;stroke-linecap:square;stroke-linejoin:miter;"/>
   </g>
   <g id="text_13">
    <!-- Speedup factors -->
    <g transform="translate(181.7019 35.472)scale(0.2016 -0.2016)">
     <defs>
      <path d="M 3014 -19 
L 3014 173 
L 2765 186 
C 2611 192 2586 243 2586 557 
L 2586 1728 
C 2586 2662 2317 3002 1574 3002 
C 1299 3002 1043 2931 800 2784 
L 461 2579 
L 461 2163 
L 627 2118 
L 710 2317 
C 838 2618 909 2662 1203 2662 
C 1805 2662 2054 2426 2074 1843 
L 1440 1728 
C 570 1568 205 1267 205 710 
C 205 211 506 -77 1011 -77 
C 1126 -77 1235 -58 1280 -26 
L 2074 525 
L 2042 -19 
C 2208 -6 2374 0 2541 0 
C 2701 0 2854 -6 3014 -19 
z
M 2074 794 
C 1888 531 1485 288 1235 288 
C 979 288 755 525 755 800 
C 755 1037 883 1261 1075 1382 
C 1235 1478 1587 1568 2074 1638 
L 2074 794 
z
" id="TeXGyrePagella-Regular-61" transform="scale(0.015625)"/>
      <path d="M 2042 2790 
L 1165 2752 
L 1165 2995 
C 1165 3264 1184 3494 1235 3904 
L 1158 3974 
C 1005 3878 813 3795 614 3731 
C 634 3539 640 3418 640 3226 
L 640 2778 
L 141 2554 
L 141 2419 
L 627 2445 
L 627 602 
C 627 128 838 -77 1331 -77 
C 1478 -77 1632 -45 1670 0 
L 1978 339 
L 1894 448 
C 1734 358 1638 326 1517 326 
C 1267 326 1165 454 1165 768 
L 1165 2445 
L 1984 2445 
L 2042 2790 
z
" id="TeXGyrePagella-Regular-74" transform="scale(0.015625)"/>
     </defs>
     <use xlink:href="#TeXGyrePagella-Regular-53"/>
     <use x="52.499985" xlink:href="#TeXGyrePagella-Regular-70"/>
     <use x="112.599976" xlink:href="#TeXGyrePagella-Regular-65"/>
     <use x="160.499969" xlink:href="#TeXGyrePagella-Regular-65"/>
     <use x="208.399963" xlink:href="#TeXGyrePagella-Regular-64"/>
     <use x="269.499954" xlink:href="#TeXGyrePagella-Regular-75"/>
     <use x="329.799942" xlink:href="#TeXGyrePagella-Regular-70"/>
     <use x="389.899933" xlink:href="#TeXGyrePagella-Regular-20"/>
     <use x="414.899918" xlink:href="#TeXGyrePagella-Regular-66"/>
     <use x="448.199905" xlink:href="#TeXGyrePagella-Regular-61"/>
     <use x="498.19989" xlink:href="#TeXGyrePagella-Regular-63"/>
     <use x="542.599884" xlink:href="#TeXGyrePagella-Regular-74"/>
     <use x="575.199875" xlink:href="#TeXGyrePagella-Regular-6f"/>
     <use x="629.799866" xlink:href="#TeXGyrePagella-Regular-72"/>
     <use x="669.29985" xlink:href="#TeXGyrePagella-Regular-73"/>
    </g>
   </g>
  </g>
 </g>
 <defs>
  <clipPath id="p921388f0c5">
   <rect height="235.008" width="322.56" x="92.16" y="41.472"/>
  </clipPath>
 </defs>
</svg>
