{"pid":0,"tid":140576988505664,"ts":7344722801182,"dur":916855,"ph":"X","name":"alloc"},
{"pid":0,"tid":140576980112960,"ts":7344722774022,"dur":948100,"ph":"X","name":"alloc"},
{"pid":0,"tid":140576996898368,"ts":7344722811154,"dur":943229,"ph":"X","name":"alloc"},
{"pid":0,"tid":140579355163520,"ts":7344723722192,"dur":340388,"ph":"X","name":"readfile"},
{"pid":0,"tid":140579355163520,"ts":7344724062601,"dur":5616104,"ph":"X","name":"presort"},
{"pid":0,"tid":"exchange_ext","ts":7344729678731,"dur":83535,"ph":"X","name":"exchange_ext"},
{"pid":0,"tid":"exchange_keep","ts":7344729762271,"dur":13,"ph":"X","name":"exchange_keep"},
{"pid":0,"tid":140579355163520,"ts":7344730029022,"dur":0,"ph":"X","name":"precopy"},
{"pid":0,"tid":"recv_buf","ts":7344730029022,"dur":305043,"ph":"X","name":"recv_buf"},
{"pid":0,"tid":140579355163520,"ts":7344730334071,"dur":699617,"ph":"X","name":"merge"},
{"pid":0,"tid":"send_buf","ts":7344730029021,"dur":1004686,"ph":"X","name":"send_buf"},
{"pid":0,"tid":"exchange_ext","ts":7344731584812,"dur":21,"ph":"X","name":"exchange_ext"},
{"pid":0,"tid":"exchange_keep","ts":7344731584841,"dur":4,"ph":"X","name":"exchange_keep"},
{"pid":0,"tid":140579355163520,"ts":7344731891367,"dur":0,"ph":"X","name":"precopy"},
{"pid":0,"tid":"recv_buf","ts":7344731891366,"dur":188823,"ph":"X","name":"recv_buf"},
{"pid":0,"tid":140579355163520,"ts":7344732080195,"dur":521684,"ph":"X","name":"merge"},
{"pid":0,"tid":"send_buf","ts":7344731891365,"dur":710534,"ph":"X","name":"send_buf"},
{"pid":0,"tid":140579355163520,"ts":7344732667149,"dur":2563964,"ph":"X","name":"writefile"},
{"pid":1,"tid":139653558261312,"ts":7344722801156,"dur":904737,"ph":"X","name":"alloc"},
{"pid":1,"tid":139653566654016,"ts":7344722773957,"dur":944885,"ph":"X","name":"alloc"},
{"pid":1,"tid":139653549868608,"ts":7344722781252,"dur":948310,"ph":"X","name":"alloc"},
{"pid":1,"tid":139655924919168,"ts":7344723729695,"dur":321013,"ph":"X","name":"readfile"},
{"pid":1,"tid":139655924919168,"ts":7344724050736,"dur":5711474,"ph":"X","name":"presort"},
{"pid":1,"tid":"exchange_ext","ts":7344729762234,"dur":44,"ph":"X","name":"exchange_ext"},
{"pid":1,"tid":"exchange_keep","ts":7344729762281,"dur":4,"ph":"X","name":"exchange_keep"},
{"pid":1,"tid":139655924919168,"ts":7344730023670,"dur":0,"ph":"X","name":"precopy"},
{"pid":1,"tid":"recv_buf","ts":7344730023670,"dur":311156,"ph":"X","name":"recv_buf"},
{"pid":1,"tid":139655924919168,"ts":7344730334830,"dur":692033,"ph":"X","name":"merge"},
{"pid":1,"tid":"send_buf","ts":7344730023670,"dur":1003217,"ph":"X","name":"send_buf"},
{"pid":1,"tid":"exchange_ext","ts":7344731039105,"dur":21,"ph":"X","name":"exchange_ext"},
{"pid":1,"tid":"exchange_keep","ts":7344731039132,"dur":16,"ph":"X","name":"exchange_keep"},
{"pid":1,"tid":139655924919168,"ts":7344731107340,"dur":0,"ph":"X","name":"precopy"},
{"pid":1,"tid":"recv_buf","ts":7344731107340,"dur":238929,"ph":"X","name":"recv_buf"},
{"pid":1,"tid":139655924919168,"ts":7344731346275,"dur":230742,"ph":"X","name":"merge"},
{"pid":1,"tid":"send_buf","ts":7344731107339,"dur":469699,"ph":"X","name":"send_buf"},
{"pid":1,"tid":"exchange_ext","ts":7344731584813,"dur":20,"ph":"X","name":"exchange_ext"},
{"pid":1,"tid":"exchange_keep","ts":7344731584836,"dur":7,"ph":"X","name":"exchange_keep"},
{"pid":1,"tid":139655924919168,"ts":7344731793556,"dur":55,"ph":"X","name":"precopy"},
{"pid":1,"tid":"recv_buf","ts":7344731793556,"dur":243345,"ph":"X","name":"recv_buf"},
{"pid":1,"tid":139655924919168,"ts":7344732036907,"dur":630112,"ph":"X","name":"merge"},
{"pid":1,"tid":"send_buf","ts":7344731793556,"dur":873483,"ph":"X","name":"send_buf"},
{"pid":1,"tid":"exchange_ext","ts":7344732667074,"dur":19,"ph":"X","name":"exchange_ext"},
{"pid":1,"tid":"exchange_keep","ts":7344732667096,"dur":4,"ph":"X","name":"exchange_keep"},
{"pid":1,"tid":139655924919168,"ts":7344732667149,"dur":2570541,"ph":"X","name":"writefile"},
{"pid":2,"tid":140247505733184,"ts":7344722773952,"dur":937767,"ph":"X","name":"alloc"},
{"pid":2,"tid":140247514125888,"ts":7344722791158,"dur":970835,"ph":"X","name":"alloc"},
{"pid":2,"tid":140247522518592,"ts":7344722811154,"dur":954992,"ph":"X","name":"alloc"},
{"pid":2,"tid":140249880783744,"ts":7344723711815,"dur":348446,"ph":"X","name":"readfile"},
{"pid":2,"tid":140249880783744,"ts":7344724060281,"dur":5714577,"ph":"X","name":"presort"},
{"pid":2,"tid":"exchange_ext","ts":7344729774884,"dur":44,"ph":"X","name":"exchange_ext"},
{"pid":2,"tid":"exchange_keep","ts":7344729774930,"dur":5,"ph":"X","name":"exchange_keep"},
{"pid":2,"tid":140249880783744,"ts":7344730023653,"dur":0,"ph":"X","name":"precopy"},
{"pid":2,"tid":"recv_buf","ts":7344730023653,"dur":315551,"ph":"X","name":"recv_buf"},
{"pid":2,"tid":140249880783744,"ts":7344730339211,"dur":699855,"ph":"X","name":"merge"},
{"pid":2,"tid":"send_buf","ts":7344730023652,"dur":1015427,"ph":"X","name":"send_buf"},
{"pid":2,"tid":"exchange_ext","ts":7344731039103,"dur":26,"ph":"X","name":"exchange_ext"},
{"pid":2,"tid":"exchange_keep","ts":7344731039133,"dur":14,"ph":"X","name":"exchange_keep"},
{"pid":2,"tid":140249880783744,"ts":7344731230955,"dur":0,"ph":"X","name":"precopy"},
{"pid":2,"tid":"recv_buf","ts":7344731230955,"dur":145097,"ph":"X","name":"recv_buf"},
{"pid":2,"tid":140249880783744,"ts":7344731376058,"dur":208698,"ph":"X","name":"merge"},
{"pid":2,"tid":"send_buf","ts":7344731230955,"dur":353820,"ph":"X","name":"send_buf"},
{"pid":2,"tid":"exchange_ext","ts":7344731584821,"dur":12,"ph":"X","name":"exchange_ext"},
{"pid":2,"tid":"exchange_keep","ts":7344731584834,"dur":9,"ph":"X","name":"exchange_keep"},
{"pid":2,"tid":140249880783744,"ts":7344731666159,"dur":74,"ph":"X","name":"precopy"},
{"pid":2,"tid":"recv_buf","ts":7344731666159,"dur":340710,"ph":"X","name":"recv_buf"},
{"pid":2,"tid":140249880783744,"ts":7344732006876,"dur":637440,"ph":"X","name":"merge"},
{"pid":2,"tid":"send_buf","ts":7344731666158,"dur":978178,"ph":"X","name":"send_buf"},
{"pid":2,"tid":"exchange_ext","ts":7344732667075,"dur":15,"ph":"X","name":"exchange_ext"},
{"pid":2,"tid":"exchange_keep","ts":7344732667092,"dur":6,"ph":"X","name":"exchange_keep"},
{"pid":2,"tid":140249880783744,"ts":7344732667149,"dur":2563953,"ph":"X","name":"writefile"},
{"pid":3,"tid":140453665146432,"ts":7344722773957,"dur":947471,"ph":"X","name":"alloc"},
{"pid":3,"tid":140453673539136,"ts":7344722791159,"dur":959577,"ph":"X","name":"alloc"},
{"pid":3,"tid":140453681931840,"ts":7344722811154,"dur":952425,"ph":"X","name":"alloc"},
{"pid":3,"tid":140456040196992,"ts":7344723721531,"dur":337889,"ph":"X","name":"readfile"},
{"pid":3,"tid":140456040196992,"ts":7344724059445,"dur":5532988,"ph":"X","name":"presort"},
{"pid":3,"tid":"exchange_ext","ts":7344729592459,"dur":182454,"ph":"X","name":"exchange_ext"},
{"pid":3,"tid":"exchange_keep","ts":7344729774919,"dur":15,"ph":"X","name":"exchange_keep"},
{"pid":3,"tid":140456040196992,"ts":7344730023782,"dur":0,"ph":"X","name":"precopy"},
{"pid":3,"tid":"recv_buf","ts":7344730023782,"dur":311766,"ph":"X","name":"recv_buf"},
{"pid":3,"tid":140456040196992,"ts":7344730335554,"dur":692225,"ph":"X","name":"merge"},
{"pid":3,"tid":"send_buf","ts":7344730023782,"dur":1004010,"ph":"X","name":"send_buf"},
{"pid":3,"tid":"exchange_ext","ts":7344731584816,"dur":17,"ph":"X","name":"exchange_ext"},
{"pid":3,"tid":"exchange_keep","ts":7344731584841,"dur":4,"ph":"X","name":"exchange_keep"},
{"pid":3,"tid":140456040196992,"ts":7344731621299,"dur":0,"ph":"X","name":"precopy"},
{"pid":3,"tid":"recv_buf","ts":7344731621299,"dur":394385,"ph":"X","name":"recv_buf"},
{"pid":3,"tid":140456040196992,"ts":7344732015691,"dur":514576,"ph":"X","name":"merge"},
{"pid":3,"tid":"send_buf","ts":7344731621299,"dur":908990,"ph":"X","name":"send_buf"},
{"pid":3,"tid":140456040196992,"ts":7344732667149,"dur":2563956,"ph":"X","name":"writefile"},
